[gd_scene load_steps=3 format=2]

[ext_resource path="res://Entities/Toy/toy128.png" type="Texture" id=1]
[ext_resource path="res://Entities/Toy/Toy.cs" type="Script" id=2]

[node name="Toy" type="Control"]
anchor_right = 1.0
anchor_bottom = 1.0
rect_scale = Vector2( 0.5, 0.5 )
script = ExtResource( 2 )
__meta__ = {
"_edit_use_anchors_": false
}

[node name="GridTex" type="TextureRect" parent="."]
margin_right = 40.0
margin_bottom = 40.0
texture = ExtResource( 1 )
